{
    "id": "nodebb-plugin-inappropriate-words",
    "name": "NodeBB Inappropriate Words Plugin",
    "description": "NodeBB Plugin that allows admin to hide or remove any pre-defined inappropriate words in posts",
    "url": "https://bitbucket.org/thuanpq/nodebb-plugin-inappropriate-words",
	"library": "./library.js",
	"hooks": [
        {
            "hook": "static:app.preload", "method": "preinit"
        },
		{
			"hook": "static:app.load", "method": "init"
		},
        {
            "hook": "filter:parse.post", "method": "parse", "priority": 6
        },
        {
			"hook": "filter:admin.header.build", "method": "addAdminNavigation"
		}
	],
	"staticDirs": {
		"static": "./static"
	},
	"less": [
		"static/style.less"
	],
	"scripts": [
		"static/lib/admin.js"
	],
	"templates": "static/templates"
}